{
	"content": [{
		"gid": 134,
		"doctor": "贾长琪",
		"title": "『公益讲堂-44』冠心病——人类健康和生命的“头号杀手”",
		"desc": "什么是冠心病？主要有哪些症状？冠心病的高危因素有哪些？哪些人更容易患冠心病？​\r\n冠心病要怎么预防？哪些是重点？三高人群怎么控制会更好？调节饮食和作息有多大帮助？\r\n得了冠心病怎么办？终生都要吃药吗？冠心病有哪些治疗方法？什么情况要手术？手术风险大吗？",
		"link": "https://mp.weixin.qq.com/s/1i9fG0WMNEE5XX1ofb8S-A",
		"date": "2018-11-22",
		"img": "http://audio.cnlod.com/weijiangtang/images/44jiachangqi.jpg",
		"mp3": "http://audio.cnlod.com/weijiangtang/audio/44jiachangqi.mp3",
		"type": 2
	}, 
	{
		"gid": 133,
		"doctor": "王英民",
		"title": "『公益讲堂-43』中老年人如何轻松应对骨质疏松？",
		"desc": "上了年纪腰酸背痛是缺钙？老年人都会得骨质疏松症吗？骨质疏松症有哪些危害？\r\n骨质疏松都有些典型症状？骨质疏松性疼痛的高危因素是什么？得了骨质疏松该如何应对？\r\n如何诊断骨质疏松症？骨密度的指标如何解读？测试您的骨质疏松症风险？\r\n如何预防骨质疏松？骨质疏松症的日常保健怎么做？老年人应该如何正确补钙？",
		"link": "https://mp.weixin.qq.com/s/3g0iiyCw4MSLG8zLylFWcg",
		"date": "2018-11-01",
		"img": "http://audio.cnlod.com/weijiangtang/images/43wangyingmin.jpg",
		"mp3": "http://audio.cnlod.com/weijiangtang/audio/43wangyingmin.mp3",
		"type": 2
	}, 
	{
		"gid": 132,
		"doctor": "王英民",
		"title": "『公益讲堂-43』中老年人如何轻松应对骨质疏松？",
		"desc": "上了年纪腰酸背痛是缺钙？老年人都会得骨质疏松症吗？骨质疏松症有哪些危害？\r\n骨质疏松都有些典型症状？骨质疏松性疼痛的高危因素是什么？得了骨质疏松该如何应对？\r\n如何诊断骨质疏松症？骨密度的指标如何解读？测试您的骨质疏松症风险？\r\n如何预防骨质疏松？骨质疏松症的日常保健怎么做？老年人应该如何正确补钙？",
		"link": "https://mp.weixin.qq.com/s/69Iv70g_W2WcaMrigGWz-A",
		"date": "2018-11-01",
		"img": "http://audio.cnlod.com/weijiangtang/images/43wangyingmin.jpg",
		"mp3": "http://audio.cnlod.com/weijiangtang/audio/43wangyingmin.mp3",
		"type": 2
	}, 
	{
		"gid": 131,
		"doctor": "张洪涛",
		"title": "『公益讲堂-42』HPV疫苗专题——妇科专家HPV疫苗详解 女性要向宫颈癌说“NO”！",
		"desc": "HPV疫苗究竟打不打？打了一定不得宫颈癌？安全性和必要性究竟如何？有没有副作用和危害？\r\n哪些人群是病毒的易感人群？接种的年龄到底怎么分？已婚未婚有无性经验有关系吗？\r\n二价、四价、九价，“价”究竟有何不同？接种疫苗终身管用吗？什么身体条件下打疫苗最合适？",
		"link": "https://mp.weixin.qq.com/s/GdQ3VvAVxmHHRJKT6Ycwjg",
		"date": "2018-09-19",
		"img": "http://audio.cnlod.com/weijiangtang/images/42zhanghongtao.jpg",
		"mp3": "http://audio.cnlod.com/weijiangtang/audio/42zhanghongtao.mp3",
		"type": 2
	}, 
	{
		"gid": 130,
		"doctor": "吴问汉",
		"title": "『公益讲堂-41』胃癌晚期刘凌峰刷爆朋友圈!胃癌离我们到底有多远！",
		"desc": "刘凌峰37岁胃癌，是偶然吗？为什么胃癌一发现就是晚期？胃癌年轻化，是作的么？\r\n除了发朋友圈，面对胃癌，我们能做些什么？遗愿清单，难说再见！如果能够重来，该如何善待自己？\r\n哪些人是胃癌的易感人群？胃癌到底离我们有多远？",
		"link": "https://mp.weixin.qq.com/s/D2tjVEVvucx76Rc2A30SNA",
		"date": "2018-08-16",
		"img": "http://audio.cnlod.com/weijiangtang/images/41wuwenhan.jpg",
		"mp3": "http://audio.cnlod.com/weijiangtang/audio/41wuwenhan.mp3",
		"type": 2
	}, 
	{
		"gid": 129,
		"doctor": "徐洁",
		"title": "『公益讲堂-39』小心睡死过去！！！-呼噜杀手的秘密",
		"desc": "睡得晚VS睡得少，哪个对身体影响更大？为神马睡了很久，总是感觉睡不醒？浅睡眠？深睡眠？如何知道自己的睡眠状态？呼噜震天响，小心麻烦找！如何找出睡眠问题？睡眠跟血氧、血糖、血压、血脂都有关系？",
		"link": "https://mp.weixin.qq.com/s/nbgQRJgJCyPE4pVLjx7MWQ",
		"date": "2018-07-05",
		"img": "http://audio.cnlod.com/weijiangtang/images/39xujie.jpg",
		"mp3": "http://audio.cnlod.com/weijiangtang/audio/39xujie.mp3",
		"type": 2
	}, 
	{
		"gid": 128,
		"doctor": "胡运韬",
		"title": "『公益讲堂-38』糖尿病视网膜病变 ——重在预防，阻止并发症！",
		"desc": "糖尿病视网膜病变是糖尿病的重要并发症之一，每年都有数以万计的患者因糖尿病视网膜病变而致盲。",
		"link": "https://mp.weixin.qq.com/s/eLd6sXOKGtVMmTyN3RMRbg",
		"date": "2018-06-07",
		"img": "http://audio.cnlod.com/weijiangtang/images/38huyuntao.jpg",
		"mp3": "http://audio.cnlod.com/weijiangtang/audio/38huyuntao.mp3",
		"type": 2
	}, 
	{
		"gid": 127,
		"doctor": "刘建湘",
		"title": "『公益讲堂-40』胃中幽灵，究竟为何？解秘难缠的胃病元凶——幽门螺旋杆菌",
		"desc": "幽门螺杆菌是致癌源？会导致胃癌？家庭集中感染，小孩成重点，它是如何传播的？感染幽门螺杆菌有什么表现？\r\n\r\n幽门螺杆菌如何检查？幽门螺旋杆菌用药能根治么？还会复发吗？什么时候去复查最佳？\r\n\r\n如何预防幽门螺杆菌感染？身边的好友都有幽门螺杆菌，是不是都不能聚会吃饭了？哪些因素会加重幽门螺杆菌的坏作用？\r\n\r\n小孩感染幽门螺杆菌要不要治疗？哪些人需要迫切地治疗幽门螺杆菌感染？反反复复杀菌就是不成功，为什么？又该怎么办？什么情况下才算杀菌真正成功了？",
		"link": "https://mp.weixin.qq.com/s/G0MzGSLmOv-IQEMaY9JksQ",
		"date": "2018-07-26",
		"img": "http://audio.cnlod.com/weijiangtang/images/40liujianxiang.jpg",
		"mp3": "http://audio.cnlod.com/weijiangtang/audio/40liujianxiang.mp3",
		"type": 2
	}, 
	{
		"gid": 126,
		"doctor": "左力",
		"title": "『公益讲堂-37』老忘事别怪大脑，可能是肾“撑”不住了！",
		"desc": "爱忘事、注意力不集中、反应迟钝、经常无精打采......这些表现也可能与“肾虚”有关。肾脏每天要过滤和清洁100升体液，但其组织损伤后不能再生，一旦发生故障就不能正常代谢，发生水液代谢和酸碱平衡失调，诱发慢性肾病、尿毒症、肾衰等，严重时可能危及生命。",
		"link": "https://mp.weixin.qq.com/s/lkz1j4wRtknRP-zisoYJ0A",
		"date": "2018-05-25",
		"img": "http://audio.cnlod.com/weijiangtang/images/37zuoli.jpg",
		"mp3": "http://audio.cnlod.com/weijiangtang/audio/37zuoli.mp3",
		"type": 2
	},
	 {
		"gid": 125,
		"doctor": "王明婕",
		"title": "『公益讲堂-36』你的感冒也许不是感冒！过敏性鼻炎的真相",
		"desc": "时而喷嚏不断，时而流涕不止，时而又因鼻塞呼吸受阻，鼻腔症状交替袭来，又到了过敏性鼻炎患者最难熬的时节。",
		"link": "https://mp.weixin.qq.com/s/J-r_gOPI3mPpGNUN8glzFA",
		"date": "2018-05-11",
		"img": "http://audio.cnlod.com/weijiangtang/images/36wangmingjie.jpg",
		"mp3": "http://audio.cnlod.com/weijiangtang/audio/36wangmingjie.mp3",
		"type": 2
	}],
	"last": false,
	"totalPages": 8,
	"totalElements": 74,
	"sort": null,
	"first": true,
	"numberOfElements": 10,
	"size": 10,
	"number": 0
}